{
  "visual": {
    "name": "lineChart",
    "displayName": "Line Chart",
    "guid": "Line Chart",
    "visualClassName": "Visual",
    "version": "1.0.0",
    "description": "",
    "supportUrl": "",
    "gitHubUrl": ""
  },
  "apiVersion": "3.8.0",
  "author": {
    "name": "Manish Wani",
    "email": "manish.wani@mindstix.com"
  },
  "assets": { "icon": "assets/icon.png" },
  "style": "style/visual.less",
  "capabilities": "capabilities.json",
  "dependencies": null,
  "stringResources": []
}
